<svg id="Mail" xmlns="http://www.w3.org/2000/svg" viewBox="0 0 109.29 71.16">
  <title>env</title>
  <path d="M54.65,29.07L101.06,0.13A9.8,9.8,0,0,0,99.52,0H9.77A10,10,0,0,0,8.23.13Z"/>
  <path d="M57.57,40.26l-0.19.1-0.21.11a5.47,5.47,0,0,1-1.12.44l-0.12,0a5.59,5.59,0,0,1-1.27.16h0a5.53,5.53,0,0,1-1.27-.16l-0.12,0a5.65,5.65,0,0,1-1.12-.44l-0.21-.11-0.2-.1L0.15,8.1A9.9,9.9,0,0,0,0,9.77V61.38a9.77,9.77,0,0,0,9.77,9.77H99.52a9.77,9.77,0,0,0,9.77-9.77V9.77a9.71,9.71,0,0,0-.15-1.67Z"/>
</svg>
