<svg id="Layer_1" data-name="Layer 1" xmlns="http://www.w3.org/2000/svg" viewBox="0 0 39.98 40">
  <defs>
    <style>
      .cls-1, .cls-2 {
        fill: #fff;
      }

      .cls-1 {
        fill-rule: evenodd;
      }
    </style>
  </defs>
  <title>lens</title>
  <path class="cls-1" d="M39.38,36.44l-8.82-8.86a2.05,2.05,0,0,0-.9-0.52,16.6,16.6,0,1,0-13,6.35,16.5,16.5,0,0,0,10.49-3.75,2.07,2.07,0,0,0,.51.87l8.82,8.86a2.07,2.07,0,0,0,2.94,0A2.1,2.1,0,0,0,39.38,36.44ZM16.5,30A13.5,13.5,0,1,1,30,16.5,13.5,13.5,0,0,1,16.5,30Z"/>
  <g>
    <path class="cls-2" d="M18.58,22.92A2.08,2.08,0,0,1,16.5,25h0a2.08,2.08,0,0,1-2.08-2.08V10.08A2.08,2.08,0,0,1,16.5,8h0a2.08,2.08,0,0,1,2.08,2.08V22.92Z"/>
    <path class="cls-2" d="M22.92,14.42A2.08,2.08,0,0,1,25,16.5h0a2.08,2.08,0,0,1-2.08,2.08H10.08A2.08,2.08,0,0,1,8,16.5H8a2.08,2.08,0,0,1,2.08-2.08H22.92Z"/>
  </g>
</svg>
