<svg id="Layer_1" data-name="Layer 1" xmlns="http://www.w3.org/2000/svg" viewBox="0 0 17 17">
  <title>pen</title>
  <path d="M21.63,6.37a11.55,11.55,0,0,0-4-4L19,1a4.94,4.94,0,0,1,3,1,4.94,4.94,0,0,1,1,3ZM10,18H6V14l0.48-.48a8.38,8.38,0,0,1,4,4ZM20.48,7.52l-8.85,8.85a11.61,11.61,0,0,0-1.75-2.23,11.57,11.57,0,0,0-2.27-1.75l8.86-8.86A8.37,8.37,0,0,1,20.48,7.52Z" transform="translate(-6 -1)"/>
</svg>
