<svg data-name="Layer 1" xmlns="http://www.w3.org/2000/svg" viewBox="0 0 20 20">
  <path class="cls-1" d="M374.69,150.77h-10a5,5,0,0,0-5,5v10a5,5,0,0,0,5,5h10a5,5,0,0,0,5-5v-10A5,5,0,0,0,374.69,150.77Zm1.37,6.38a2,2,0,0,1-.72,1,7.45,7.45,0,0,0-.72.58,5.42,5.42,0,0,1-2,5.16,7.79,7.79,0,0,1-6.88,1.43c-0.29-.14-1.29-0.72-1.29-0.72a16.49,16.49,0,0,0,2.29-.58,3.1,3.1,0,0,0,1-.58,5.21,5.21,0,0,1-1.57-.43,2.73,2.73,0,0,1-.72-1.15h1.15a4.24,4.24,0,0,1-1.29-1,2.74,2.74,0,0,1-.43-1.43l0.72,0.14a2.65,2.65,0,0,1-.72-2,3.1,3.1,0,0,1,.29-1.29,4.46,4.46,0,0,0,2.87,2.29c1.87,0.29,2,.29,2,0.29-0.61-4,4.48-3,4.16-2a5,5,0,0,0,1.29-.86,7.28,7.28,0,0,1-.29,1.29l0.86-.14h0Z" transform="translate(-359.69 -150.77)"/>
</svg>
