<svg id="Layer_1" data-name="Layer 1" xmlns="http://www.w3.org/2000/svg" viewBox="0 0 416 320">
  <g>
    <path d="M430.4,147H362.9l-40.4-40.8a0.77,0.77,0,0,0-.3-0.2l-0.2-.2h0A32.71,32.71,0,0,0,298.7,96h-84a33.07,33.07,0,0,0-24.6,10.9V107l-39.5,40h-69A33.21,33.21,0,0,0,48,180.2V382.3A33.63,33.63,0,0,0,81.6,416H430.4A33.69,33.69,0,0,0,464,382.3V180.2A33.27,33.27,0,0,0,430.4,147ZM256,365.5c-50.9,0-92.4-41.6-92.4-92.6s41.5-92.6,92.4-92.6a92.55,92.55,0,0,1,92.4,92.6C348.4,323.9,307,365.5,256,365.5Zm168.1-165a14.1,14.1,0,1,1,14-14.1A14.06,14.06,0,0,1,424.1,200.5Z" transform="translate(-48 -96)"/>
    <path d="M256,202.9a70,70,0,1,0,69.8,70A69.84,69.84,0,0,0,256,202.9Z" transform="translate(-48 -96)"/>
  </g>
</svg>
