<svg id="Layer_1" data-name="Layer 1" xmlns="http://www.w3.org/2000/svg" viewBox="0 0 23 19.86">
  <path class="cls-1" d="M224.07,60.86a5.28,5.28,0,0,0-10-2.39,5.28,5.28,0,0,0-10,2.39c0,5.52,8.87,11.57,10,11.57S224.07,66.41,224.07,60.86Z" transform="translate(-202.57 -54.07)"/>
</svg>
