<svg id="Layer_1" data-name="Layer 1" xmlns="http://www.w3.org/2000/svg" viewBox="0 0 20 16.86">
  <path class="cls-1" d="M74,60.86a5.28,5.28,0,0,0-10-2.39,5.28,5.28,0,0,0-10,2.39c0,5.52,8.87,11.57,10,11.57S74,66.41,74,60.86Z" transform="translate(-54 -55.57)"/>
</svg>
