<svg id="Profile" xmlns="http://www.w3.org/2000/svg" viewBox="0 0 15 16.1">
  <circle cx="7.5" cy="4.56" r="4.56"/>
  <path d="M10.44,9.83a8.08,8.08,0,0,1-5.87,0C2.76,11,0,12.36,0,16.1H15C15,12.36,12.24,11,10.44,9.83Z"/>
</svg>
