<svg data-name="Layer 1" xmlns="http://www.w3.org/2000/svg" viewBox="0 0 20 20">
  <g>
    <path class="cls-1" d="M393.07,155.93c-2.13.39-1,4.48,1.11,4S394.95,155.58,393.07,155.93Z" transform="translate(-384.85 -150.77)"/>
    <path class="cls-1" d="M394.59,162.4a1.49,1.49,0,0,0-.93-0.07h0c-1.24.1-2.49,0.45-2.5,1.74,0,1.53,2.92,2.15,4.24,1.31a1.38,1.38,0,0,0,.71-1.37A3.33,3.33,0,0,0,394.59,162.4Z" transform="translate(-384.85 -150.77)"/>
    <path class="cls-1" d="M399.85,150.77h-10a5,5,0,0,0-5,5v10a5,5,0,0,0,5,5h10a5,5,0,0,0,5-5v-10A5,5,0,0,0,399.85,150.77ZM397,164.52c-1.14,2.37-5.7,2.34-6.83.78a1.67,1.67,0,0,1-.24-1.56c0.52-1.47,2.58-1.8,4-1.87a2.92,2.92,0,0,0-.22-0.31,1.11,1.11,0,0,1-.08-1.21c-3.61.17-3.37-3-2.46-3.93a2.65,2.65,0,0,1,1.12-.75,5.21,5.21,0,0,1,1.54-.33c0.41,0,3.45-.06,3.71,0-0.09,0-.27.17-0.37,0.23a1.16,1.16,0,0,1-.87.38,5,5,0,0,0-.61,0,2.38,2.38,0,0,1,.81,2.74c-0.46,1-2,1.44-1.45,2.25C395.39,161.45,397.94,162.47,397,164.52Zm4.48-3.65H399.7v1.64h-0.58l0-1.65h-1.78V160.3h1.79v-1.66h0.6a12.79,12.79,0,0,0,0,1.66h1.74v0.57Z" transform="translate(-384.85 -150.77)"/>
  </g>
</svg>
