<svg data-name="Layer 1" xmlns="http://www.w3.org/2000/svg" viewBox="0 0 20 20">
  <path class="cls-1" d="M422.85,150.77h-10a5,5,0,0,0-5,5v10a5,5,0,0,0,5,5h10a5,5,0,0,0,5-5v-10A5,5,0,0,0,422.85,150.77ZM412.46,158l3.68,2.81-3.68,3.68V158Zm0.36,6.85,3.72-3.72,1.5,1.15,1.5-1.15,3.72,3.72H412.82Zm10.81-.36L420,160.8l3.67-2.81v6.49Zm0-7.13L418,161.63l-5.58-4.28v-0.64h11.17v0.64Z" transform="translate(-407.85 -150.77)"/>
</svg>
